riscv_test/riscv_test.sim/sim_1/behav/xsim/simulate.log
Time resolution is 1 ps
Time: 0ns | PC: 0 | IF_ID_instr: 00000000 | IF_ID_PC:          0 | ID_EX_PC:          0 | ID_EX_instr: 00000000 | ID_EX_read_data:          x | ID_EX_rd:  x | ID_EX_rs1:  x | ID_EX_hint: x | ID_EX_imm:    x | ID_EX_funct3: xxx | EX_MEM_alu_result:          0 | EX_MEM_rd:  x | EX_MEM_hint: x | EX_MEM_funct3: xxx | MEM_WB_alu_result:          0 | MEM_WB_rd:  x | MEM_WB_memOut[0]:          x | MEM_WB_memOut[1]:          x | MEM_WB_memOut[2]:          x | MEM_WB_memOut[3]:          x | MEM_WB_memOut[4]:          x | MEM_WB_memOut[5]:          x | MEM_WB_memOut[6]:          x | MEM_WB_memOut[7]:          x | MEM_WB_memOut[8]:          x | MEM_WB_memOut[9]:          x | MEM_WB_memOut[10]:          x | MEM_WB_memOut[11]:          x | MEM_WB_memOut[12]:          x | MEM_WB_memOut[13]:          x | MEM_WB_memOut[14]:          x | MEM_WB_memOut[15]:          x | SVR_WVR[0]:          x | SVR_WVR[1]:          x | SVR_WVR[2]:          x | SVR_WVR[3]:          x | SVR_WVR[4]:          x | SVR_WVR[5]:          x | SVR_WVR[6]:          x | SVR_WVR[7]:          x | SVR_WVR[8]:          x | SVR_WVR[9]:          x | SVR_WVR[10]:          x | SVR_WVR[11]:          x | SVR_WVR[12]:          x | SVR_WVR[13]:          x | SVR_WVR[14]:          x | SVR_WVR[15]:          x | SVR_WVR[16]:          x | SVR_WVR[17]:          x | SVR_WVR[18]:          x | SVR_WVR[19]:          x | SVR_WVR[20]:          x | SVR_WVR[21]:          x | SVR_WVR[22]:          x | SVR_WVR[23]:          x | SVR_WVR[24]:          x | SVR_WVR[25]:          x | SVR_WVR[26]:          x | SVR_WVR[27]:          x | SVR_WVR[28]:          x | SVR_WVR[29]:          x | SVR_WVR[30]:          x | SVR_WVR[31]:          x
Time: 10ns | PC: 1 | IF_ID_instr: 0e001801 | IF_ID_PC:          0 | ID_EX_PC:          0 | ID_EX_instr: 00000000 | ID_EX_read_data:          0 | ID_EX_rd:  0 | ID_EX_rs1:  0 | ID_EX_hint: 0 | ID_EX_imm:    0 | ID_EX_funct3: 000 | EX_MEM_alu_result:          x | EX_MEM_rd:  x | EX_MEM_hint: x | EX_MEM_funct3: xxx | MEM_WB_alu_result:          0 | MEM_WB_rd:  x | MEM_WB_memOut[0]:          x | MEM_WB_memOut[1]:          x | MEM_WB_memOut[2]:          x | MEM_WB_memOut[3]:          x | MEM_WB_memOut[4]:          x | MEM_WB_memOut[5]:          x | MEM_WB_memOut[6]:          x | MEM_WB_memOut[7]:          x | MEM_WB_memOut[8]:          x | MEM_WB_memOut[9]:          x | MEM_WB_memOut[10]:          x | MEM_WB_memOut[11]:          x | MEM_WB_memOut[12]:          x | MEM_WB_memOut[13]:          x | MEM_WB_memOut[14]:          x | MEM_WB_memOut[15]:          x | SVR_WVR[0]:          x | SVR_WVR[1]:          x | SVR_WVR[2]:          x | SVR_WVR[3]:          x | SVR_WVR[4]:          x | SVR_WVR[5]:          x | SVR_WVR[6]:          x | SVR_WVR[7]:          x | SVR_WVR[8]:          x | SVR_WVR[9]:          x | SVR_WVR[10]:          x | SVR_WVR[11]:          x | SVR_WVR[12]:          x | SVR_WVR[13]:          x | SVR_WVR[14]:          x | SVR_WVR[15]:          x | SVR_WVR[16]:          x | SVR_WVR[17]:          x | SVR_WVR[18]:          x | SVR_WVR[19]:          x | SVR_WVR[20]:          x | SVR_WVR[21]:          x | SVR_WVR[22]:          x | SVR_WVR[23]:          x | SVR_WVR[24]:          x | SVR_WVR[25]:          x | SVR_WVR[26]:          x | SVR_WVR[27]:          x | SVR_WVR[28]:          x | SVR_WVR[29]:          x | SVR_WVR[30]:          x | SVR_WVR[31]:          x
Time: 20ns | PC: 2 | IF_ID_instr: 0040a081 | IF_ID_PC:          1 | ID_EX_PC:          0 | ID_EX_instr: 0e001801 | ID_EX_read_data:          0 | ID_EX_rd: 16 | ID_EX_rs1:  0 | ID_EX_hint: 1 | ID_EX_imm:  224 | ID_EX_funct3: 001 | EX_MEM_alu_result:          0 | EX_MEM_rd:  0 | EX_MEM_hint: 0 | EX_MEM_funct3: 000 | MEM_WB_alu_result:          x | MEM_WB_rd:  x | MEM_WB_memOut[0]:          x | MEM_WB_memOut[1]:          x | MEM_WB_memOut[2]:          x | MEM_WB_memOut[3]:          x | MEM_WB_memOut[4]:          x | MEM_WB_memOut[5]:          x | MEM_WB_memOut[6]:          x | MEM_WB_memOut[7]:          x | MEM_WB_memOut[8]:          x | MEM_WB_memOut[9]:          x | MEM_WB_memOut[10]:          x | MEM_WB_memOut[11]:          x | MEM_WB_memOut[12]:          x | MEM_WB_memOut[13]:          x | MEM_WB_memOut[14]:          x | MEM_WB_memOut[15]:          x | SVR_WVR[0]:          x | SVR_WVR[1]:          x | SVR_WVR[2]:          x | SVR_WVR[3]:          x | SVR_WVR[4]:          x | SVR_WVR[5]:          x | SVR_WVR[6]:          x | SVR_WVR[7]:          x | SVR_WVR[8]:          x | SVR_WVR[9]:          x | SVR_WVR[10]:          x | SVR_WVR[11]:          x | SVR_WVR[12]:          x | SVR_WVR[13]:          x | SVR_WVR[14]:          x | SVR_WVR[15]:          x | SVR_WVR[16]:          x | SVR_WVR[17]:          x | SVR_WVR[18]:          x | SVR_WVR[19]:          x | SVR_WVR[20]:          x | SVR_WVR[21]:          x | SVR_WVR[22]:          x | SVR_WVR[23]:          x | SVR_WVR[24]:          x | SVR_WVR[25]:          x | SVR_WVR[26]:          x | SVR_WVR[27]:          x | SVR_WVR[28]:          x | SVR_WVR[29]:          x | SVR_WVR[30]:          x | SVR_WVR[31]:          x
Time: 30ns | PC: 3 | IF_ID_instr: 11814901 | IF_ID_PC:          2 | ID_EX_PC:          1 | ID_EX_instr: 0040a081 | ID_EX_read_data:          1 | ID_EX_rd: 17 | ID_EX_rs1:  1 | ID_EX_hint: 0 | ID_EX_imm:    4 | ID_EX_funct3: 010 | EX_MEM_alu_result:        224 | EX_MEM_rd: 16 | EX_MEM_hint: 1 | EX_MEM_funct3: 001 | MEM_WB_alu_result:          0 | MEM_WB_rd:  0 | MEM_WB_memOut[0]:          x | MEM_WB_memOut[1]:          x | MEM_WB_memOut[2]:          x | MEM_WB_memOut[3]:          x | MEM_WB_memOut[4]:          x | MEM_WB_memOut[5]:          x | MEM_WB_memOut[6]:          x | MEM_WB_memOut[7]:          x | MEM_WB_memOut[8]:          x | MEM_WB_memOut[9]:          x | MEM_WB_memOut[10]:          x | MEM_WB_memOut[11]:          x | MEM_WB_memOut[12]:          x | MEM_WB_memOut[13]:          x | MEM_WB_memOut[14]:          x | MEM_WB_memOut[15]:          x | SVR_WVR[0]:          x | SVR_WVR[1]:          x | SVR_WVR[2]:          x | SVR_WVR[3]:          x | SVR_WVR[4]:          x | SVR_WVR[5]:          x | SVR_WVR[6]:          x | SVR_WVR[7]:          x | SVR_WVR[8]:          x | SVR_WVR[9]:          x | SVR_WVR[10]:          x | SVR_WVR[11]:          x | SVR_WVR[12]:          x | SVR_WVR[13]:          x | SVR_WVR[14]:          x | SVR_WVR[15]:          x | SVR_WVR[16]:          x | SVR_WVR[17]:          x | SVR_WVR[18]:          x | SVR_WVR[19]:          x | SVR_WVR[20]:          x | SVR_WVR[21]:          x | SVR_WVR[22]:          x | SVR_WVR[23]:          x | SVR_WVR[24]:          x | SVR_WVR[25]:          x | SVR_WVR[26]:          x | SVR_WVR[27]:          x | SVR_WVR[28]:          x | SVR_WVR[29]:          x | SVR_WVR[30]:          x | SVR_WVR[31]:          x
Time: 40ns | PC: 4 | IF_ID_instr: 01019182 | IF_ID_PC:          3 | ID_EX_PC:          2 | ID_EX_instr: 11814901 | ID_EX_read_data:          2 | ID_EX_rd: 18 | ID_EX_rs1:  2 | ID_EX_hint: 1 | ID_EX_imm:  280 | ID_EX_funct3: 100 | EX_MEM_alu_result:          5 | EX_MEM_rd: 17 | EX_MEM_hint: 0 | EX_MEM_funct3: 010 | MEM_WB_alu_result:        224 | MEM_WB_rd: 16 | MEM_WB_memOut[0]:        224 | MEM_WB_memOut[1]:          x | MEM_WB_memOut[2]:          x | MEM_WB_memOut[3]:          x | MEM_WB_memOut[4]:          x | MEM_WB_memOut[5]:          x | MEM_WB_memOut[6]:          x | MEM_WB_memOut[7]:          x | MEM_WB_memOut[8]:          x | MEM_WB_memOut[9]:          x | MEM_WB_memOut[10]:          x | MEM_WB_memOut[11]:          x | MEM_WB_memOut[12]:          x | MEM_WB_memOut[13]:          x | MEM_WB_memOut[14]:          x | MEM_WB_memOut[15]:          x | SVR_WVR[0]:          x | SVR_WVR[1]:          x | SVR_WVR[2]:          x | SVR_WVR[3]:          x | SVR_WVR[4]:          x | SVR_WVR[5]:          x | SVR_WVR[6]:          x | SVR_WVR[7]:          x | SVR_WVR[8]:          x | SVR_WVR[9]:          x | SVR_WVR[10]:          x | SVR_WVR[11]:          x | SVR_WVR[12]:          x | SVR_WVR[13]:          x | SVR_WVR[14]:          x | SVR_WVR[15]:          x | SVR_WVR[16]:        224 | SVR_WVR[17]:          x | SVR_WVR[18]:          x | SVR_WVR[19]:          x | SVR_WVR[20]:          x | SVR_WVR[21]:          x | SVR_WVR[22]:          x | SVR_WVR[23]:          x | SVR_WVR[24]:          x | SVR_WVR[25]:          x | SVR_WVR[26]:          x | SVR_WVR[27]:          x | SVR_WVR[28]:          x | SVR_WVR[29]:          x | SVR_WVR[30]:          x | SVR_WVR[31]:          x
Time: 50ns | PC: 5 | IF_ID_instr: 05022a02 | IF_ID_PC:          4 | ID_EX_PC:          3 | ID_EX_instr: 01019182 | ID_EX_read_data:          3 | ID_EX_rd:  3 | ID_EX_rs1:  3 | ID_EX_hint: 0 | ID_EX_imm:   16 | ID_EX_funct3: 001 | EX_MEM_alu_result:        282 | EX_MEM_rd: 18 | EX_MEM_hint: 1 | EX_MEM_funct3: 100 | MEM_WB_alu_result:          5 | MEM_WB_rd: 17 | MEM_WB_memOut[0]:        224 | MEM_WB_memOut[1]:          5 | MEM_WB_memOut[2]:          6 | MEM_WB_memOut[3]:          7 | MEM_WB_memOut[4]:          8 | MEM_WB_memOut[5]:          x | MEM_WB_memOut[6]:          x | MEM_WB_memOut[7]:          x | MEM_WB_memOut[8]:          x | MEM_WB_memOut[9]:          x | MEM_WB_memOut[10]:          x | MEM_WB_memOut[11]:          x | MEM_WB_memOut[12]:          x | MEM_WB_memOut[13]:          x | MEM_WB_memOut[14]:          x | MEM_WB_memOut[15]:          x | SVR_WVR[0]:          x | SVR_WVR[1]:          x | SVR_WVR[2]:          x | SVR_WVR[3]:          x | SVR_WVR[4]:          x | SVR_WVR[5]:          x | SVR_WVR[6]:          x | SVR_WVR[7]:          x | SVR_WVR[8]:          x | SVR_WVR[9]:          x | SVR_WVR[10]:          x | SVR_WVR[11]:          x | SVR_WVR[12]:          x | SVR_WVR[13]:          x | SVR_WVR[14]:          x | SVR_WVR[15]:          x | SVR_WVR[16]:        224 | SVR_WVR[17]:          5 | SVR_WVR[18]:          6 | SVR_WVR[19]:          7 | SVR_WVR[20]:          8 | SVR_WVR[21]:          x | SVR_WVR[22]:          x | SVR_WVR[23]:          x | SVR_WVR[24]:          x | SVR_WVR[25]:          x | SVR_WVR[26]:          x | SVR_WVR[27]:          x | SVR_WVR[28]:          x | SVR_WVR[29]:          x | SVR_WVR[30]:          x | SVR_WVR[31]:          x
Time: 60ns | PC: 6 | IF_ID_instr: b002c282 | IF_ID_PC:          5 | ID_EX_PC:          4 | ID_EX_instr: 05022a02 | ID_EX_read_data:          4 | ID_EX_rd:  4 | ID_EX_rs1:  4 | ID_EX_hint: 1 | ID_EX_imm:   80 | ID_EX_funct3: 010 | EX_MEM_alu_result:         19 | EX_MEM_rd:  3 | EX_MEM_hint: 0 | EX_MEM_funct3: 001 | MEM_WB_alu_result:        282 | MEM_WB_rd: 18 | MEM_WB_memOut[0]:         40 | MEM_WB_memOut[1]:         41 | MEM_WB_memOut[2]:         26 | MEM_WB_memOut[3]:         27 | MEM_WB_memOut[4]:         28 | MEM_WB_memOut[5]:         29 | MEM_WB_memOut[6]:         30 | MEM_WB_memOut[7]:         31 | MEM_WB_memOut[8]:         32 | MEM_WB_memOut[9]:         33 | MEM_WB_memOut[10]:         34 | MEM_WB_memOut[11]:         35 | MEM_WB_memOut[12]:         36 | MEM_WB_memOut[13]:         37 | MEM_WB_memOut[14]:         38 | MEM_WB_memOut[15]:         39 | SVR_WVR[0]:          x | SVR_WVR[1]:          x | SVR_WVR[2]:          x | SVR_WVR[3]:          x | SVR_WVR[4]:          x | SVR_WVR[5]:          x | SVR_WVR[6]:          x | SVR_WVR[7]:          x | SVR_WVR[8]:          x | SVR_WVR[9]:          x | SVR_WVR[10]:          x | SVR_WVR[11]:          x | SVR_WVR[12]:          x | SVR_WVR[13]:          x | SVR_WVR[14]:          x | SVR_WVR[15]:          x | SVR_WVR[16]:         40 | SVR_WVR[17]:         41 | SVR_WVR[18]:         26 | SVR_WVR[19]:         27 | SVR_WVR[20]:         28 | SVR_WVR[21]:         29 | SVR_WVR[22]:         30 | SVR_WVR[23]:         31 | SVR_WVR[24]:         32 | SVR_WVR[25]:         33 | SVR_WVR[26]:         34 | SVR_WVR[27]:         35 | SVR_WVR[28]:         36 | SVR_WVR[29]:         37 | SVR_WVR[30]:         38 | SVR_WVR[31]:         39
Time: 70ns | PC: 7 | IF_ID_instr: xxxxxxxx | IF_ID_PC:          6 | ID_EX_PC:          5 | ID_EX_instr: b002c282 | ID_EX_read_data:          5 | ID_EX_rd:  5 | ID_EX_rs1:  5 | ID_EX_hint: 0 | ID_EX_imm: 2816 | ID_EX_funct3: 100 | EX_MEM_alu_result:         84 | EX_MEM_rd:  4 | EX_MEM_hint: 1 | EX_MEM_funct3: 010 | MEM_WB_alu_result:         19 | MEM_WB_rd:  3 | MEM_WB_memOut[0]:         40 | MEM_WB_memOut[1]:         41 | MEM_WB_memOut[2]:         26 | MEM_WB_memOut[3]:         19 | MEM_WB_memOut[4]:         28 | MEM_WB_memOut[5]:         29 | MEM_WB_memOut[6]:         30 | MEM_WB_memOut[7]:         31 | MEM_WB_memOut[8]:         32 | MEM_WB_memOut[9]:         33 | MEM_WB_memOut[10]:         34 | MEM_WB_memOut[11]:         35 | MEM_WB_memOut[12]:         36 | MEM_WB_memOut[13]:         37 | MEM_WB_memOut[14]:         38 | MEM_WB_memOut[15]:         39 | SVR_WVR[0]:          x | SVR_WVR[1]:          x | SVR_WVR[2]:          x | SVR_WVR[3]:         19 | SVR_WVR[4]:          x | SVR_WVR[5]:          x | SVR_WVR[6]:          x | SVR_WVR[7]:          x | SVR_WVR[8]:          x | SVR_WVR[9]:          x | SVR_WVR[10]:          x | SVR_WVR[11]:          x | SVR_WVR[12]:          x | SVR_WVR[13]:          x | SVR_WVR[14]:          x | SVR_WVR[15]:          x | SVR_WVR[16]:         40 | SVR_WVR[17]:         41 | SVR_WVR[18]:         26 | SVR_WVR[19]:         27 | SVR_WVR[20]:         28 | SVR_WVR[21]:         29 | SVR_WVR[22]:         30 | SVR_WVR[23]:         31 | SVR_WVR[24]:         32 | SVR_WVR[25]:         33 | SVR_WVR[26]:         34 | SVR_WVR[27]:         35 | SVR_WVR[28]:         36 | SVR_WVR[29]:         37 | SVR_WVR[30]:         38 | SVR_WVR[31]:         39
Time: 80ns | PC: 8 | IF_ID_instr: xxxxxxxx | IF_ID_PC:          7 | ID_EX_PC:          6 | ID_EX_instr: xxxxxxxx | ID_EX_read_data:          x | ID_EX_rd:  x | ID_EX_rs1:  x | ID_EX_hint: x | ID_EX_imm:    x | ID_EX_funct3: xxx | EX_MEM_alu_result:       2821 | EX_MEM_rd:  5 | EX_MEM_hint: 0 | EX_MEM_funct3: 100 | MEM_WB_alu_result:         84 | MEM_WB_rd:  4 | MEM_WB_memOut[0]:         40 | MEM_WB_memOut[1]:         41 | MEM_WB_memOut[2]:         26 | MEM_WB_memOut[3]:         19 | MEM_WB_memOut[4]:         84 | MEM_WB_memOut[5]:         85 | MEM_WB_memOut[6]:         86 | MEM_WB_memOut[7]:         87 | MEM_WB_memOut[8]:         32 | MEM_WB_memOut[9]:         33 | MEM_WB_memOut[10]:         34 | MEM_WB_memOut[11]:         35 | MEM_WB_memOut[12]:         36 | MEM_WB_memOut[13]:         37 | MEM_WB_memOut[14]:         38 | MEM_WB_memOut[15]:         39 | SVR_WVR[0]:          x | SVR_WVR[1]:          x | SVR_WVR[2]:          x | SVR_WVR[3]:         19 | SVR_WVR[4]:         84 | SVR_WVR[5]:         85 | SVR_WVR[6]:         86 | SVR_WVR[7]:         87 | SVR_WVR[8]:          x | SVR_WVR[9]:          x | SVR_WVR[10]:          x | SVR_WVR[11]:          x | SVR_WVR[12]:          x | SVR_WVR[13]:          x | SVR_WVR[14]:          x | SVR_WVR[15]:          x | SVR_WVR[16]:         40 | SVR_WVR[17]:         41 | SVR_WVR[18]:         26 | SVR_WVR[19]:         27 | SVR_WVR[20]:         28 | SVR_WVR[21]:         29 | SVR_WVR[22]:         30 | SVR_WVR[23]:         31 | SVR_WVR[24]:         32 | SVR_WVR[25]:         33 | SVR_WVR[26]:         34 | SVR_WVR[27]:         35 | SVR_WVR[28]:         36 | SVR_WVR[29]:         37 | SVR_WVR[30]:         38 | SVR_WVR[31]:         39
Time: 90ns | PC: 9 | IF_ID_instr: xxxxxxxx | IF_ID_PC:          8 | ID_EX_PC:          7 | ID_EX_instr: xxxxxxxx | ID_EX_read_data:          x | ID_EX_rd:  x | ID_EX_rs1:  x | ID_EX_hint: x | ID_EX_imm:    x | ID_EX_funct3: xxx | EX_MEM_alu_result:          x | EX_MEM_rd:  x | EX_MEM_hint: x | EX_MEM_funct3: xxx | MEM_WB_alu_result:       2821 | MEM_WB_rd:  5 | MEM_WB_memOut[0]:         16 | MEM_WB_memOut[1]:         17 | MEM_WB_memOut[2]:         18 | MEM_WB_memOut[3]:         19 | MEM_WB_memOut[4]:         20 | MEM_WB_memOut[5]:          5 | MEM_WB_memOut[6]:          6 | MEM_WB_memOut[7]:          7 | MEM_WB_memOut[8]:          8 | MEM_WB_memOut[9]:          9 | MEM_WB_memOut[10]:         10 | MEM_WB_memOut[11]:         11 | MEM_WB_memOut[12]:         12 | MEM_WB_memOut[13]:         13 | MEM_WB_memOut[14]:         14 | MEM_WB_memOut[15]:         15 | SVR_WVR[0]:         16 | SVR_WVR[1]:         17 | SVR_WVR[2]:         18 | SVR_WVR[3]:         19 | SVR_WVR[4]:         20 | SVR_WVR[5]:          5 | SVR_WVR[6]:          6 | SVR_WVR[7]:          7 | SVR_WVR[8]:          8 | SVR_WVR[9]:          9 | SVR_WVR[10]:         10 | SVR_WVR[11]:         11 | SVR_WVR[12]:         12 | SVR_WVR[13]:         13 | SVR_WVR[14]:         14 | SVR_WVR[15]:         15 | SVR_WVR[16]:         40 | SVR_WVR[17]:         41 | SVR_WVR[18]:         26 | SVR_WVR[19]:         27 | SVR_WVR[20]:         28 | SVR_WVR[21]:         29 | SVR_WVR[22]:         30 | SVR_WVR[23]:         31 | SVR_WVR[24]:         32 | SVR_WVR[25]:         33 | SVR_WVR[26]:         34 | SVR_WVR[27]:         35 | SVR_WVR[28]:         36 | SVR_WVR[29]:         37 | SVR_WVR[30]:         38 | SVR_WVR[31]:         39
Time: 100ns | PC: 10 | IF_ID_instr: xxxxxxxx | IF_ID_PC:          9 | ID_EX_PC:          8 | ID_EX_instr: xxxxxxxx | ID_EX_read_data:          x | ID_EX_rd:  x | ID_EX_rs1:  x | ID_EX_hint: x | ID_EX_imm:    x | ID_EX_funct3: xxx | EX_MEM_alu_result:          x | EX_MEM_rd:  x | EX_MEM_hint: x | EX_MEM_funct3: xxx | MEM_WB_alu_result:          x | MEM_WB_rd:  x | MEM_WB_memOut[0]:         16 | MEM_WB_memOut[1]:         17 | MEM_WB_memOut[2]:         18 | MEM_WB_memOut[3]:         19 | MEM_WB_memOut[4]:         20 | MEM_WB_memOut[5]:          5 | MEM_WB_memOut[6]:          6 | MEM_WB_memOut[7]:          7 | MEM_WB_memOut[8]:          8 | MEM_WB_memOut[9]:          9 | MEM_WB_memOut[10]:         10 | MEM_WB_memOut[11]:         11 | MEM_WB_memOut[12]:         12 | MEM_WB_memOut[13]:         13 | MEM_WB_memOut[14]:         14 | MEM_WB_memOut[15]:         15 | SVR_WVR[0]:         16 | SVR_WVR[1]:         17 | SVR_WVR[2]:         18 | SVR_WVR[3]:         19 | SVR_WVR[4]:         20 | SVR_WVR[5]:          5 | SVR_WVR[6]:          6 | SVR_WVR[7]:          7 | SVR_WVR[8]:          8 | SVR_WVR[9]:          9 | SVR_WVR[10]:         10 | SVR_WVR[11]:         11 | SVR_WVR[12]:         12 | SVR_WVR[13]:         13 | SVR_WVR[14]:         14 | SVR_WVR[15]:         15 | SVR_WVR[16]:         40 | SVR_WVR[17]:         41 | SVR_WVR[18]:         26 | SVR_WVR[19]:         27 | SVR_WVR[20]:         28 | SVR_WVR[21]:         29 | SVR_WVR[22]:         30 | SVR_WVR[23]:         31 | SVR_WVR[24]:         32 | SVR_WVR[25]:         33 | SVR_WVR[26]:         34 | SVR_WVR[27]:         35 | SVR_WVR[28]:         36 | SVR_WVR[29]:         37 | SVR_WVR[30]:         38 | SVR_WVR[31]:         39
Time: 110ns | PC: 11 | IF_ID_instr: xxxxxxxx | IF_ID_PC:         10 | ID_EX_PC:          9 | ID_EX_instr: xxxxxxxx | ID_EX_read_data:          x | ID_EX_rd:  x | ID_EX_rs1:  x | ID_EX_hint: x | ID_EX_imm:    x | ID_EX_funct3: xxx | EX_MEM_alu_result:          x | EX_MEM_rd:  x | EX_MEM_hint: x | EX_MEM_funct3: xxx | MEM_WB_alu_result:          x | MEM_WB_rd:  x | MEM_WB_memOut[0]:         16 | MEM_WB_memOut[1]:         17 | MEM_WB_memOut[2]:         18 | MEM_WB_memOut[3]:         19 | MEM_WB_memOut[4]:         20 | MEM_WB_memOut[5]:          5 | MEM_WB_memOut[6]:          6 | MEM_WB_memOut[7]:          7 | MEM_WB_memOut[8]:          8 | MEM_WB_memOut[9]:          9 | MEM_WB_memOut[10]:         10 | MEM_WB_memOut[11]:         11 | MEM_WB_memOut[12]:         12 | MEM_WB_memOut[13]:         13 | MEM_WB_memOut[14]:         14 | MEM_WB_memOut[15]:         15 | SVR_WVR[0]:         16 | SVR_WVR[1]:         17 | SVR_WVR[2]:         18 | SVR_WVR[3]:         19 | SVR_WVR[4]:         20 | SVR_WVR[5]:          5 | SVR_WVR[6]:          6 | SVR_WVR[7]:          7 | SVR_WVR[8]:          8 | SVR_WVR[9]:          9 | SVR_WVR[10]:         10 | SVR_WVR[11]:         11 | SVR_WVR[12]:         12 | SVR_WVR[13]:         13 | SVR_WVR[14]:         14 | SVR_WVR[15]:         15 | SVR_WVR[16]:         40 | SVR_WVR[17]:         41 | SVR_WVR[18]:         26 | SVR_WVR[19]:         27 | SVR_WVR[20]:         28 | SVR_WVR[21]:         29 | SVR_WVR[22]:         30 | SVR_WVR[23]:         31 | SVR_WVR[24]:         32 | SVR_WVR[25]:         33 | SVR_WVR[26]:         34 | SVR_WVR[27]:         35 | SVR_WVR[28]:         36 | SVR_WVR[29]:         37 | SVR_WVR[30]:         38 | SVR_WVR[31]:         39
Time: 120ns | PC: 12 | IF_ID_instr: xxxxxxxx | IF_ID_PC:         11 | ID_EX_PC:         10 | ID_EX_instr: xxxxxxxx | ID_EX_read_data:          x | ID_EX_rd:  x | ID_EX_rs1:  x | ID_EX_hint: x | ID_EX_imm:    x | ID_EX_funct3: xxx | EX_MEM_alu_result:          x | EX_MEM_rd:  x | EX_MEM_hint: x | EX_MEM_funct3: xxx | MEM_WB_alu_result:          x | MEM_WB_rd:  x | MEM_WB_memOut[0]:         16 | MEM_WB_memOut[1]:         17 | MEM_WB_memOut[2]:         18 | MEM_WB_memOut[3]:         19 | MEM_WB_memOut[4]:         20 | MEM_WB_memOut[5]:          5 | MEM_WB_memOut[6]:          6 | MEM_WB_memOut[7]:          7 | MEM_WB_memOut[8]:          8 | MEM_WB_memOut[9]:          9 | MEM_WB_memOut[10]:         10 | MEM_WB_memOut[11]:         11 | MEM_WB_memOut[12]:         12 | MEM_WB_memOut[13]:         13 | MEM_WB_memOut[14]:         14 | MEM_WB_memOut[15]:         15 | SVR_WVR[0]:         16 | SVR_WVR[1]:         17 | SVR_WVR[2]:         18 | SVR_WVR[3]:         19 | SVR_WVR[4]:         20 | SVR_WVR[5]:          5 | SVR_WVR[6]:          6 | SVR_WVR[7]:          7 | SVR_WVR[8]:          8 | SVR_WVR[9]:          9 | SVR_WVR[10]:         10 | SVR_WVR[11]:         11 | SVR_WVR[12]:         12 | SVR_WVR[13]:         13 | SVR_WVR[14]:         14 | SVR_WVR[15]:         15 | SVR_WVR[16]:         40 | SVR_WVR[17]:         41 | SVR_WVR[18]:         26 | SVR_WVR[19]:         27 | SVR_WVR[20]:         28 | SVR_WVR[21]:         29 | SVR_WVR[22]:         30 | SVR_WVR[23]:         31 | SVR_WVR[24]:         32 | SVR_WVR[25]:         33 | SVR_WVR[26]:         34 | SVR_WVR[27]:         35 | SVR_WVR[28]:         36 | SVR_WVR[29]:         37 | SVR_WVR[30]:         38 | SVR_WVR[31]:         39
Time: 130ns | PC: 13 | IF_ID_instr: xxxxxxxx | IF_ID_PC:         12 | ID_EX_PC:         11 | ID_EX_instr: xxxxxxxx | ID_EX_read_data:          x | ID_EX_rd:  x | ID_EX_rs1:  x | ID_EX_hint: x | ID_EX_imm:    x | ID_EX_funct3: xxx | EX_MEM_alu_result:          x | EX_MEM_rd:  x | EX_MEM_hint: x | EX_MEM_funct3: xxx | MEM_WB_alu_result:          x | MEM_WB_rd:  x | MEM_WB_memOut[0]:         16 | MEM_WB_memOut[1]:         17 | MEM_WB_memOut[2]:         18 | MEM_WB_memOut[3]:         19 | MEM_WB_memOut[4]:         20 | MEM_WB_memOut[5]:          5 | MEM_WB_memOut[6]:          6 | MEM_WB_memOut[7]:          7 | MEM_WB_memOut[8]:          8 | MEM_WB_memOut[9]:          9 | MEM_WB_memOut[10]:         10 | MEM_WB_memOut[11]:         11 | MEM_WB_memOut[12]:         12 | MEM_WB_memOut[13]:         13 | MEM_WB_memOut[14]:         14 | MEM_WB_memOut[15]:         15 | SVR_WVR[0]:         16 | SVR_WVR[1]:         17 | SVR_WVR[2]:         18 | SVR_WVR[3]:         19 | SVR_WVR[4]:         20 | SVR_WVR[5]:          5 | SVR_WVR[6]:          6 | SVR_WVR[7]:          7 | SVR_WVR[8]:          8 | SVR_WVR[9]:          9 | SVR_WVR[10]:         10 | SVR_WVR[11]:         11 | SVR_WVR[12]:         12 | SVR_WVR[13]:         13 | SVR_WVR[14]:         14 | SVR_WVR[15]:         15 | SVR_WVR[16]:         40 | SVR_WVR[17]:         41 | SVR_WVR[18]:         26 | SVR_WVR[19]:         27 | SVR_WVR[20]:         28 | SVR_WVR[21]:         29 | SVR_WVR[22]:         30 | SVR_WVR[23]:         31 | SVR_WVR[24]:         32 | SVR_WVR[25]:         33 | SVR_WVR[26]:         34 | SVR_WVR[27]:         35 | SVR_WVR[28]:         36 | SVR_WVR[29]:         37 | SVR_WVR[30]:         38 | SVR_WVR[31]:         39
Time: 140ns | PC: 14 | IF_ID_instr: xxxxxxxx | IF_ID_PC:         13 | ID_EX_PC:         12 | ID_EX_instr: xxxxxxxx | ID_EX_read_data:          x | ID_EX_rd:  x | ID_EX_rs1:  x | ID_EX_hint: x | ID_EX_imm:    x | ID_EX_funct3: xxx | EX_MEM_alu_result:          x | EX_MEM_rd:  x | EX_MEM_hint: x | EX_MEM_funct3: xxx | MEM_WB_alu_result:          x | MEM_WB_rd:  x | MEM_WB_memOut[0]:         16 | MEM_WB_memOut[1]:         17 | MEM_WB_memOut[2]:         18 | MEM_WB_memOut[3]:         19 | MEM_WB_memOut[4]:         20 | MEM_WB_memOut[5]:          5 | MEM_WB_memOut[6]:          6 | MEM_WB_memOut[7]:          7 | MEM_WB_memOut[8]:          8 | MEM_WB_memOut[9]:          9 | MEM_WB_memOut[10]:         10 | MEM_WB_memOut[11]:         11 | MEM_WB_memOut[12]:         12 | MEM_WB_memOut[13]:         13 | MEM_WB_memOut[14]:         14 | MEM_WB_memOut[15]:         15 | SVR_WVR[0]:         16 | SVR_WVR[1]:         17 | SVR_WVR[2]:         18 | SVR_WVR[3]:         19 | SVR_WVR[4]:         20 | SVR_WVR[5]:          5 | SVR_WVR[6]:          6 | SVR_WVR[7]:          7 | SVR_WVR[8]:          8 | SVR_WVR[9]:          9 | SVR_WVR[10]:         10 | SVR_WVR[11]:         11 | SVR_WVR[12]:         12 | SVR_WVR[13]:         13 | SVR_WVR[14]:         14 | SVR_WVR[15]:         15 | SVR_WVR[16]:         40 | SVR_WVR[17]:         41 | SVR_WVR[18]:         26 | SVR_WVR[19]:         27 | SVR_WVR[20]:         28 | SVR_WVR[21]:         29 | SVR_WVR[22]:         30 | SVR_WVR[23]:         31 | SVR_WVR[24]:         32 | SVR_WVR[25]:         33 | SVR_WVR[26]:         34 | SVR_WVR[27]:         35 | SVR_WVR[28]:         36 | SVR_WVR[29]:         37 | SVR_WVR[30]:         38 | SVR_WVR[31]:         39
